  [1m[36m (1.1ms)[0m  [1mCREATE TABLE "schema_migrations" ("version" varchar(255) NOT NULL) [0m
  [1m[35m (0.4ms)[0m  select sqlite_version(*)
  [1m[36m (0.8ms)[0m  [1mCREATE UNIQUE INDEX "unique_schema_migrations" ON "schema_migrations" ("version")[0m
  [1m[35mActiveRecord::SchemaMigration Load (0.1ms)[0m  SELECT "schema_migrations".* FROM "schema_migrations"
Migrating to CreatePosts (20140831075923)
  [1m[36m (0.1ms)[0m  [1mbegin transaction[0m
  [1m[35m (0.3ms)[0m  CREATE TABLE "posts" ("id" INTEGER PRIMARY KEY AUTOINCREMENT NOT NULL, "title" varchar(255), "body" text, "created_at" datetime, "updated_at" datetime) 
  [1m[36mSQL (0.2ms)[0m  [1mINSERT INTO "schema_migrations" ("version") VALUES (?)[0m  [["version", "20140831075923"]]
  [1m[35m (0.6ms)[0m  commit transaction
Migrating to CreateComments (20140831075956)
  [1m[36m (0.1ms)[0m  [1mbegin transaction[0m
  [1m[35m (0.3ms)[0m  CREATE TABLE "comments" ("id" INTEGER PRIMARY KEY AUTOINCREMENT NOT NULL, "post_id" integer, "body" text, "created_at" datetime, "updated_at" datetime) 
  [1m[36mSQL (0.1ms)[0m  [1mINSERT INTO "schema_migrations" ("version") VALUES (?)[0m  [["version", "20140831075956"]]
  [1m[35m (0.6ms)[0m  commit transaction
  [1m[36mActiveRecord::SchemaMigration Load (0.1ms)[0m  [1mSELECT "schema_migrations".* FROM "schema_migrations"[0m


Started GET "/" for 127.0.0.1 at 2014-08-31 03:01:55 -0500
  [1m[36mActiveRecord::SchemaMigration Load (0.1ms)[0m  [1mSELECT "schema_migrations".* FROM "schema_migrations"[0m
Processing by Rails::WelcomeController#index as HTML
  Rendered /Users/admin/.rvm/gems/ruby-2.1.2@rails4.1/gems/railties-4.1.5/lib/rails/templates/rails/welcome/index.html.erb (1.8ms)
Completed 200 OK in 19ms (Views: 8.7ms | ActiveRecord: 0.0ms)


Started GET "/" for 127.0.0.1 at 2014-08-31 03:02:12 -0500
Processing by Rails::WelcomeController#index as HTML
  Rendered /Users/admin/.rvm/gems/ruby-2.1.2@rails4.1/gems/railties-4.1.5/lib/rails/templates/rails/welcome/index.html.erb (0.1ms)
Completed 200 OK in 3ms (Views: 2.2ms | ActiveRecord: 0.0ms)


Started GET "/" for 127.0.0.1 at 2014-08-31 03:02:12 -0500
Processing by Rails::WelcomeController#index as HTML
  Rendered /Users/admin/.rvm/gems/ruby-2.1.2@rails4.1/gems/railties-4.1.5/lib/rails/templates/rails/welcome/index.html.erb (0.0ms)
Completed 200 OK in 1ms (Views: 0.7ms | ActiveRecord: 0.0ms)


Started GET "/posts/new" for 127.0.0.1 at 2014-08-31 03:02:18 -0500
Processing by PostsController#new as HTML
  Rendered posts/_form.html.erb (20.9ms)
  Rendered posts/new.html.erb within layouts/application (27.4ms)
Completed 200 OK in 866ms (Views: 862.9ms | ActiveRecord: 0.3ms)


Started GET "/assets/posts.css?body=1" for 127.0.0.1 at 2014-08-31 03:02:19 -0500


Started GET "/assets/jquery_ujs.js?body=1" for 127.0.0.1 at 2014-08-31 03:02:19 -0500


Started GET "/assets/scaffolds.css?body=1" for 127.0.0.1 at 2014-08-31 03:02:19 -0500


Started GET "/assets/turbolinks.js?body=1" for 127.0.0.1 at 2014-08-31 03:02:19 -0500


Started GET "/assets/application.css?body=1" for 127.0.0.1 at 2014-08-31 03:02:19 -0500


Started GET "/assets/comments.css?body=1" for 127.0.0.1 at 2014-08-31 03:02:19 -0500


Started GET "/assets/jquery.js?body=1" for 127.0.0.1 at 2014-08-31 03:02:19 -0500


Started GET "/assets/comments.js?body=1" for 127.0.0.1 at 2014-08-31 03:02:19 -0500


Started GET "/assets/posts.js?body=1" for 127.0.0.1 at 2014-08-31 03:02:19 -0500


Started GET "/assets/application.js?body=1" for 127.0.0.1 at 2014-08-31 03:02:19 -0500


Started POST "/posts" for 127.0.0.1 at 2014-08-31 03:02:28 -0500
Processing by PostsController#create as HTML
  Parameters: {"utf8"=>"✓", "authenticity_token"=>"44at4h2PYw04sK7HZ66Qqo4h47vWPq8FlicCRMJyjVw=", "post"=>{"title"=>"Test", "body"=>"Test post"}, "commit"=>"Create Post"}
  [1m[35m (0.1ms)[0m  begin transaction
  [1m[36mSQL (0.4ms)[0m  [1mINSERT INTO "posts" ("body", "created_at", "title", "updated_at") VALUES (?, ?, ?, ?)[0m  [["body", "Test post"], ["created_at", "2014-08-31 08:02:28.803437"], ["title", "Test"], ["updated_at", "2014-08-31 08:02:28.803437"]]
  [1m[35m (0.6ms)[0m  commit transaction
Redirected to http://localhost:3000/posts/1
Completed 302 Found in 8ms (ActiveRecord: 1.2ms)


Started GET "/posts/1" for 127.0.0.1 at 2014-08-31 03:02:28 -0500
Processing by PostsController#show as HTML
  Parameters: {"id"=>"1"}
  [1m[36mPost Load (0.2ms)[0m  [1mSELECT  "posts".* FROM "posts"  WHERE "posts"."id" = ? LIMIT 1[0m  [["id", 1]]
  Rendered posts/show.html.erb within layouts/application (0.7ms)
Completed 200 OK in 7ms (Views: 4.8ms | ActiveRecord: 0.2ms)


Started GET "/comments/new" for 127.0.0.1 at 2014-08-31 03:02:41 -0500
Processing by CommentsController#new as HTML
  Rendered comments/_form.html.erb (12.4ms)
  Rendered comments/new.html.erb within layouts/application (13.7ms)
Completed 200 OK in 21ms (Views: 17.9ms | ActiveRecord: 0.3ms)


Started GET "/assets/posts.css?body=1" for 127.0.0.1 at 2014-08-31 03:02:41 -0500


Started GET "/assets/posts.js?body=1" for 127.0.0.1 at 2014-08-31 03:02:41 -0500


Started GET "/assets/scaffolds.css?body=1" for 127.0.0.1 at 2014-08-31 03:02:41 -0500


Started GET "/assets/comments.css?body=1" for 127.0.0.1 at 2014-08-31 03:02:41 -0500


Started GET "/assets/comments.js?body=1" for 127.0.0.1 at 2014-08-31 03:02:41 -0500


Started POST "/comments" for 127.0.0.1 at 2014-08-31 03:02:55 -0500
Processing by CommentsController#create as HTML
  Parameters: {"utf8"=>"✓", "authenticity_token"=>"44at4h2PYw04sK7HZ66Qqo4h47vWPq8FlicCRMJyjVw=", "comment"=>{"post_id"=>"1", "body"=>"Great post\r\n"}, "commit"=>"Create Comment"}
  [1m[35m (0.1ms)[0m  begin transaction
  [1m[36mSQL (0.5ms)[0m  [1mINSERT INTO "comments" ("body", "created_at", "post_id", "updated_at") VALUES (?, ?, ?, ?)[0m  [["body", "Great post\r\n"], ["created_at", "2014-08-31 08:02:55.241235"], ["post_id", 1], ["updated_at", "2014-08-31 08:02:55.241235"]]
  [1m[35m (0.7ms)[0m  commit transaction
Redirected to http://localhost:3000/comments/1
Completed 302 Found in 5ms (ActiveRecord: 1.2ms)


Started GET "/comments/1" for 127.0.0.1 at 2014-08-31 03:02:55 -0500
Processing by CommentsController#show as HTML
  Parameters: {"id"=>"1"}
  [1m[36mComment Load (0.3ms)[0m  [1mSELECT  "comments".* FROM "comments"  WHERE "comments"."id" = ? LIMIT 1[0m  [["id", 1]]
  Rendered comments/show.html.erb within layouts/application (1.1ms)
Completed 200 OK in 9ms (Views: 6.7ms | ActiveRecord: 0.3ms)


Started GET "/assets/scaffolds.css?body=1" for 127.0.0.1 at 2014-08-31 03:02:55 -0500


Started GET "/assets/comments.css?body=1" for 127.0.0.1 at 2014-08-31 03:02:55 -0500


Started GET "/assets/posts.css?body=1" for 127.0.0.1 at 2014-08-31 03:02:55 -0500


Started GET "/assets/comments.js?body=1" for 127.0.0.1 at 2014-08-31 03:02:55 -0500


Started GET "/assets/posts.js?body=1" for 127.0.0.1 at 2014-08-31 03:02:55 -0500


Started GET "/" for 127.0.0.1 at 2014-09-01 12:54:08 -0500
Processing by Rails::WelcomeController#index as HTML
  Rendered /Users/admin/.rvm/gems/ruby-2.1.2@rails4.1/gems/railties-4.1.5/lib/rails/templates/rails/welcome/index.html.erb (0.7ms)
Completed 200 OK in 9ms (Views: 6.8ms | ActiveRecord: 0.0ms)


Started GET "/" for 127.0.0.1 at 2014-09-01 12:54:08 -0500
Processing by Rails::WelcomeController#index as HTML
  Rendered /Users/admin/.rvm/gems/ruby-2.1.2@rails4.1/gems/railties-4.1.5/lib/rails/templates/rails/welcome/index.html.erb (0.1ms)
Completed 200 OK in 2ms (Views: 1.5ms | ActiveRecord: 0.0ms)
  [1m[36m (0.9ms)[0m  [1mCREATE TABLE "schema_migrations" ("version" varchar(255) NOT NULL) [0m
  [1m[35m (0.2ms)[0m  select sqlite_version(*)
  [1m[36m (0.7ms)[0m  [1mCREATE UNIQUE INDEX "unique_schema_migrations" ON "schema_migrations" ("version")[0m
  [1m[35mActiveRecord::SchemaMigration Load (0.1ms)[0m  SELECT "schema_migrations".* FROM "schema_migrations"
Migrating to CreatePosts (20140831075923)
  [1m[36m (0.0ms)[0m  [1mbegin transaction[0m
  [1m[35m (0.3ms)[0m  CREATE TABLE "posts" ("id" INTEGER PRIMARY KEY AUTOINCREMENT NOT NULL, "title" varchar(255), "body" text, "created_at" datetime, "updated_at" datetime) 
  [1m[36mSQL (0.1ms)[0m  [1mINSERT INTO "schema_migrations" ("version") VALUES (?)[0m  [["version", "20140831075923"]]
  [1m[35m (0.6ms)[0m  commit transaction
Migrating to CreateComments (20140831075956)
  [1m[36m (0.0ms)[0m  [1mbegin transaction[0m
  [1m[35m (0.2ms)[0m  CREATE TABLE "comments" ("id" INTEGER PRIMARY KEY AUTOINCREMENT NOT NULL, "post_id" integer, "body" text, "created_at" datetime, "updated_at" datetime) 
  [1m[36mSQL (0.1ms)[0m  [1mINSERT INTO "schema_migrations" ("version") VALUES (?)[0m  [["version", "20140831075956"]]
  [1m[35m (0.6ms)[0m  commit transaction
  [1m[36mActiveRecord::SchemaMigration Load (0.1ms)[0m  [1mSELECT "schema_migrations".* FROM "schema_migrations"[0m
  [1m[36m (0.1ms)[0m  [1mbegin transaction[0m
  [1m[35mSQL (0.3ms)[0m  INSERT INTO "posts" ("body", "created_at", "title", "updated_at") VALUES (?, ?, ?, ?)  [["body", "Life is Great!"], ["created_at", "2014-09-14 20:27:47.723662"], ["title", "My First Post"], ["updated_at", "2014-09-14 20:27:47.723662"]]
  [1m[36m (2.8ms)[0m  [1mcommit transaction[0m
  [1m[35mPost Load (0.3ms)[0m  SELECT "posts".* FROM "posts"
  [1m[36mPost Load (0.2ms)[0m  [1mSELECT  "posts".* FROM "posts"   ORDER BY "posts"."id" ASC LIMIT 1[0m
  [1m[36mPost Load (1.0ms)[0m  [1mSELECT "posts".* FROM "posts"[0m
  [1m[36mComment Load (1.7ms)[0m  [1mSELECT "comments".* FROM "comments"[0m
  [1m[35mPost Load (0.3ms)[0m  SELECT "posts".* FROM "posts"


Started GET "/" for 127.0.0.1 at 2014-09-14 15:42:08 -0500
  [1m[36mActiveRecord::SchemaMigration Load (0.1ms)[0m  [1mSELECT "schema_migrations".* FROM "schema_migrations"[0m
Processing by Rails::WelcomeController#index as HTML
  Rendered /Users/admin/.rvm/gems/ruby-2.1.2@global/gems/railties-4.1.5/lib/rails/templates/rails/welcome/index.html.erb (1.8ms)
Completed 200 OK in 16ms (Views: 8.4ms | ActiveRecord: 0.0ms)


Started GET "/" for 127.0.0.1 at 2014-09-14 15:42:24 -0500
Processing by Rails::WelcomeController#index as HTML
  Rendered /Users/admin/.rvm/gems/ruby-2.1.2@global/gems/railties-4.1.5/lib/rails/templates/rails/welcome/index.html.erb (0.0ms)
Completed 200 OK in 1ms (Views: 1.1ms | ActiveRecord: 0.0ms)


Started GET "/" for 127.0.0.1 at 2014-09-14 15:42:24 -0500
Processing by Rails::WelcomeController#index as HTML
  Rendered /Users/admin/.rvm/gems/ruby-2.1.2@global/gems/railties-4.1.5/lib/rails/templates/rails/welcome/index.html.erb (0.0ms)
Completed 200 OK in 1ms (Views: 0.8ms | ActiveRecord: 0.0ms)


Started GET "/posts/1" for 127.0.0.1 at 2014-09-14 15:42:24 -0500
Processing by PostsController#show as HTML
  Parameters: {"id"=>"1"}
  [1m[35mPost Load (0.1ms)[0m  SELECT  "posts".* FROM "posts"  WHERE "posts"."id" = ? LIMIT 1  [["id", 1]]
  Rendered posts/show.html.erb within layouts/application (1.0ms)
Completed 200 OK in 756ms (Views: 751.0ms | ActiveRecord: 0.3ms)


Started GET "/posts" for 127.0.0.1 at 2014-09-14 15:42:25 -0500
Processing by PostsController#index as HTML
  [1m[36mPost Load (0.1ms)[0m  [1mSELECT "posts".* FROM "posts"[0m
  Rendered posts/index.html.erb within layouts/application (2.1ms)
Completed 200 OK in 7ms (Views: 6.5ms | ActiveRecord: 0.1ms)


Started GET "/assets/comments.css?body=1" for 127.0.0.1 at 2014-09-14 15:42:25 -0500


Started GET "/assets/scaffolds.css?body=1" for 127.0.0.1 at 2014-09-14 15:42:25 -0500


Started GET "/assets/posts.css?body=1" for 127.0.0.1 at 2014-09-14 15:42:25 -0500


Started GET "/assets/application.css?body=1" for 127.0.0.1 at 2014-09-14 15:42:25 -0500


Started GET "/assets/jquery.js?body=1" for 127.0.0.1 at 2014-09-14 15:42:25 -0500


Started GET "/assets/jquery_ujs.js?body=1" for 127.0.0.1 at 2014-09-14 15:42:25 -0500


Started GET "/assets/comments.js?body=1" for 127.0.0.1 at 2014-09-14 15:42:25 -0500


Started GET "/assets/posts.js?body=1" for 127.0.0.1 at 2014-09-14 15:42:25 -0500


Started GET "/assets/turbolinks.js?body=1" for 127.0.0.1 at 2014-09-14 15:42:25 -0500


Started GET "/assets/application.js?body=1" for 127.0.0.1 at 2014-09-14 15:42:25 -0500


Started GET "/" for 127.0.0.1 at 2014-09-14 16:08:27 -0500
  [1m[36mActiveRecord::SchemaMigration Load (0.1ms)[0m  [1mSELECT "schema_migrations".* FROM "schema_migrations"[0m
Processing by Rails::WelcomeController#index as HTML
  Rendered /Users/admin/.rvm/gems/ruby-2.1.2@global/gems/railties-4.1.5/lib/rails/templates/rails/welcome/index.html.erb (1.2ms)
Completed 200 OK in 14ms (Views: 5.8ms | ActiveRecord: 0.0ms)


Started GET "/" for 127.0.0.1 at 2014-09-14 16:08:27 -0500
Processing by Rails::WelcomeController#index as HTML
  Rendered /Users/admin/.rvm/gems/ruby-2.1.2@global/gems/railties-4.1.5/lib/rails/templates/rails/welcome/index.html.erb (0.0ms)
Completed 200 OK in 2ms (Views: 1.2ms | ActiveRecord: 0.0ms)


Started GET "/" for 127.0.0.1 at 2014-09-14 16:08:31 -0500
Processing by Rails::WelcomeController#index as HTML
  Rendered /Users/admin/.rvm/gems/ruby-2.1.2@global/gems/railties-4.1.5/lib/rails/templates/rails/welcome/index.html.erb (0.0ms)
Completed 200 OK in 1ms (Views: 0.7ms | ActiveRecord: 0.0ms)


Started GET "/posts/1" for 127.0.0.1 at 2014-09-14 16:08:35 -0500
Processing by PostsController#show as HTML
  Parameters: {"id"=>"1"}
  [1m[35mPost Load (0.1ms)[0m  SELECT  "posts".* FROM "posts"  WHERE "posts"."id" = ? LIMIT 1  [["id", 1]]
  Rendered posts/show.html.erb within layouts/application (0.9ms)
Completed 200 OK in 41ms (Views: 36.2ms | ActiveRecord: 0.3ms)


Started GET "/assets/comments.css?body=1" for 127.0.0.1 at 2014-09-14 16:08:35 -0500


Started GET "/assets/scaffolds.css?body=1" for 127.0.0.1 at 2014-09-14 16:08:35 -0500


Started GET "/assets/jquery_ujs.js?body=1" for 127.0.0.1 at 2014-09-14 16:08:35 -0500


Started GET "/assets/posts.css?body=1" for 127.0.0.1 at 2014-09-14 16:08:35 -0500


Started GET "/assets/turbolinks.js?body=1" for 127.0.0.1 at 2014-09-14 16:08:35 -0500


Started GET "/assets/application.css?body=1" for 127.0.0.1 at 2014-09-14 16:08:35 -0500


Started GET "/assets/comments.js?body=1" for 127.0.0.1 at 2014-09-14 16:08:35 -0500


Started GET "/assets/jquery.js?body=1" for 127.0.0.1 at 2014-09-14 16:08:35 -0500


Started GET "/assets/posts.js?body=1" for 127.0.0.1 at 2014-09-14 16:08:35 -0500


Started GET "/assets/application.js?body=1" for 127.0.0.1 at 2014-09-14 16:08:35 -0500


Started GET "/posts/" for 127.0.0.1 at 2014-09-14 16:08:37 -0500
Processing by PostsController#index as HTML
  [1m[36mPost Load (0.2ms)[0m  [1mSELECT "posts".* FROM "posts"[0m
  Rendered posts/index.html.erb within layouts/application (2.8ms)
Completed 200 OK in 10ms (Views: 9.2ms | ActiveRecord: 0.2ms)


Started GET "/assets/comments.css?body=1" for 127.0.0.1 at 2014-09-14 16:08:38 -0500


Started GET "/assets/scaffolds.css?body=1" for 127.0.0.1 at 2014-09-14 16:08:38 -0500


Started GET "/assets/posts.css?body=1" for 127.0.0.1 at 2014-09-14 16:08:38 -0500


Started GET "/assets/jquery_ujs.js?body=1" for 127.0.0.1 at 2014-09-14 16:08:38 -0500


Started GET "/assets/application.css?body=1" for 127.0.0.1 at 2014-09-14 16:08:38 -0500


Started GET "/assets/jquery.js?body=1" for 127.0.0.1 at 2014-09-14 16:08:38 -0500


Started GET "/assets/turbolinks.js?body=1" for 127.0.0.1 at 2014-09-14 16:08:38 -0500


Started GET "/assets/posts.js?body=1" for 127.0.0.1 at 2014-09-14 16:08:38 -0500


Started GET "/assets/application.js?body=1" for 127.0.0.1 at 2014-09-14 16:08:38 -0500


Started GET "/assets/comments.js?body=1" for 127.0.0.1 at 2014-09-14 16:08:38 -0500


Started GET "/posts/new" for 127.0.0.1 at 2014-09-14 16:08:40 -0500
Processing by PostsController#new as HTML
  Rendered posts/_form.html.erb (20.4ms)
  Rendered posts/new.html.erb within layouts/application (25.2ms)
Completed 200 OK in 31ms (Views: 30.3ms | ActiveRecord: 0.0ms)


Started POST "/posts" for 127.0.0.1 at 2014-09-14 16:09:04 -0500
Processing by PostsController#create as HTML
  Parameters: {"utf8"=>"✓", "authenticity_token"=>"z8pvL3Ef7I7w/rkXwHJIxcd2a4rIxGhCDr0CDNDIU3I=", "post"=>{"title"=>"", "body"=>"This is a test of validations\r\n"}, "commit"=>"Create Post"}
  [1m[35m (0.1ms)[0m  begin transaction
  [1m[36mSQL (1.4ms)[0m  [1mINSERT INTO "posts" ("body", "created_at", "title", "updated_at") VALUES (?, ?, ?, ?)[0m  [["body", "This is a test of validations\r\n"], ["created_at", "2014-09-14 21:09:04.951612"], ["title", ""], ["updated_at", "2014-09-14 21:09:04.951612"]]
  [1m[35m (0.6ms)[0m  commit transaction
Redirected to http://localhost:3000/posts/2
Completed 302 Found in 13ms (ActiveRecord: 2.1ms)


Started GET "/posts/2" for 127.0.0.1 at 2014-09-14 16:09:04 -0500
Processing by PostsController#show as HTML
  Parameters: {"id"=>"2"}
  [1m[36mPost Load (0.1ms)[0m  [1mSELECT  "posts".* FROM "posts"  WHERE "posts"."id" = ? LIMIT 1[0m  [["id", 2]]
  Rendered posts/show.html.erb within layouts/application (0.3ms)
Completed 200 OK in 5ms (Views: 3.7ms | ActiveRecord: 0.1ms)


Started GET "/assets/application.css?body=1" for 127.0.0.1 at 2014-09-14 16:09:05 -0500


Started GET "/assets/scaffolds.css?body=1" for 127.0.0.1 at 2014-09-14 16:09:05 -0500


Started GET "/assets/jquery.js?body=1" for 127.0.0.1 at 2014-09-14 16:09:05 -0500


Started GET "/assets/comments.js?body=1" for 127.0.0.1 at 2014-09-14 16:09:05 -0500


Started GET "/assets/jquery_ujs.js?body=1" for 127.0.0.1 at 2014-09-14 16:09:05 -0500


Started GET "/assets/turbolinks.js?body=1" for 127.0.0.1 at 2014-09-14 16:09:05 -0500


Started GET "/assets/posts.js?body=1" for 127.0.0.1 at 2014-09-14 16:09:05 -0500


Started GET "/assets/application.js?body=1" for 127.0.0.1 at 2014-09-14 16:09:05 -0500


Started GET "/posts/new" for 127.0.0.1 at 2014-09-14 16:09:38 -0500
Processing by PostsController#new as HTML
  Rendered posts/_form.html.erb (1.6ms)
  Rendered posts/new.html.erb within layouts/application (2.2ms)
Completed 200 OK in 7ms (Views: 6.1ms | ActiveRecord: 0.0ms)


Started POST "/posts" for 127.0.0.1 at 2014-09-14 16:09:43 -0500
Processing by PostsController#create as HTML
  Parameters: {"utf8"=>"✓", "authenticity_token"=>"z8pvL3Ef7I7w/rkXwHJIxcd2a4rIxGhCDr0CDNDIU3I=", "post"=>{"title"=>"", "body"=>"Test\r\n"}, "commit"=>"Create Post"}
  [1m[35m (0.1ms)[0m  begin transaction
  [1m[36mSQL (0.3ms)[0m  [1mINSERT INTO "posts" ("body", "created_at", "title", "updated_at") VALUES (?, ?, ?, ?)[0m  [["body", "Test\r\n"], ["created_at", "2014-09-14 21:09:43.394173"], ["title", ""], ["updated_at", "2014-09-14 21:09:43.394173"]]
  [1m[35m (1.3ms)[0m  commit transaction
Redirected to http://localhost:3000/posts/3
Completed 302 Found in 5ms (ActiveRecord: 1.6ms)


Started GET "/posts/3" for 127.0.0.1 at 2014-09-14 16:09:43 -0500
Processing by PostsController#show as HTML
  Parameters: {"id"=>"3"}
  [1m[36mPost Load (0.1ms)[0m  [1mSELECT  "posts".* FROM "posts"  WHERE "posts"."id" = ? LIMIT 1[0m  [["id", 3]]
  Rendered posts/show.html.erb within layouts/application (0.3ms)
Completed 200 OK in 5ms (Views: 3.7ms | ActiveRecord: 0.1ms)


Started GET "/assets/scaffolds.css?body=1" for 127.0.0.1 at 2014-09-14 16:09:43 -0500


Started GET "/assets/application.css?body=1" for 127.0.0.1 at 2014-09-14 16:09:43 -0500


Started GET "/assets/jquery.js?body=1" for 127.0.0.1 at 2014-09-14 16:09:43 -0500


Started GET "/assets/jquery_ujs.js?body=1" for 127.0.0.1 at 2014-09-14 16:09:43 -0500


Started GET "/assets/comments.js?body=1" for 127.0.0.1 at 2014-09-14 16:09:43 -0500


Started GET "/assets/posts.js?body=1" for 127.0.0.1 at 2014-09-14 16:09:43 -0500


Started GET "/assets/turbolinks.js?body=1" for 127.0.0.1 at 2014-09-14 16:09:43 -0500


Started GET "/assets/application.js?body=1" for 127.0.0.1 at 2014-09-14 16:09:43 -0500


Started GET "/posts" for 127.0.0.1 at 2014-09-14 16:11:01 -0500
Processing by PostsController#index as HTML
  [1m[35mPost Load (0.1ms)[0m  SELECT "posts".* FROM "posts"
  Rendered posts/index.html.erb within layouts/application (1.8ms)
Completed 200 OK in 6ms (Views: 5.2ms | ActiveRecord: 0.1ms)


Started GET "/posts/new" for 127.0.0.1 at 2014-09-14 16:11:05 -0500
Processing by PostsController#new as HTML
  Rendered posts/_form.html.erb (1.4ms)
  Rendered posts/new.html.erb within layouts/application (2.0ms)
Completed 200 OK in 6ms (Views: 5.5ms | ActiveRecord: 0.0ms)


Started POST "/posts" for 127.0.0.1 at 2014-09-14 16:11:12 -0500
Processing by PostsController#create as HTML
  Parameters: {"utf8"=>"✓", "authenticity_token"=>"z8pvL3Ef7I7w/rkXwHJIxcd2a4rIxGhCDr0CDNDIU3I=", "post"=>{"title"=>"This is a test", "body"=>""}, "commit"=>"Create Post"}
  [1m[36m (0.1ms)[0m  [1mbegin transaction[0m
  [1m[35mSQL (0.3ms)[0m  INSERT INTO "posts" ("body", "created_at", "title", "updated_at") VALUES (?, ?, ?, ?)  [["body", ""], ["created_at", "2014-09-14 21:11:12.013860"], ["title", "This is a test"], ["updated_at", "2014-09-14 21:11:12.013860"]]
  [1m[36m (2.2ms)[0m  [1mcommit transaction[0m
Redirected to http://localhost:3000/posts/4
Completed 302 Found in 6ms (ActiveRecord: 2.7ms)


Started GET "/posts/4" for 127.0.0.1 at 2014-09-14 16:11:12 -0500
Processing by PostsController#show as HTML
  Parameters: {"id"=>"4"}
  [1m[35mPost Load (0.1ms)[0m  SELECT  "posts".* FROM "posts"  WHERE "posts"."id" = ? LIMIT 1  [["id", 4]]
  Rendered posts/show.html.erb within layouts/application (0.3ms)
Completed 200 OK in 5ms (Views: 4.4ms | ActiveRecord: 0.1ms)


Started GET "/assets/scaffolds.css?body=1" for 127.0.0.1 at 2014-09-14 16:11:12 -0500


Started GET "/assets/application.css?body=1" for 127.0.0.1 at 2014-09-14 16:11:12 -0500


Started GET "/assets/posts.js?body=1" for 127.0.0.1 at 2014-09-14 16:11:12 -0500


Started GET "/assets/application.js?body=1" for 127.0.0.1 at 2014-09-14 16:11:12 -0500


Started GET "/assets/turbolinks.js?body=1" for 127.0.0.1 at 2014-09-14 16:11:12 -0500


Started GET "/assets/jquery.js?body=1" for 127.0.0.1 at 2014-09-14 16:11:12 -0500


Started GET "/assets/comments.js?body=1" for 127.0.0.1 at 2014-09-14 16:11:12 -0500


Started GET "/assets/jquery_ujs.js?body=1" for 127.0.0.1 at 2014-09-14 16:11:12 -0500


Started GET "/posts" for 127.0.0.1 at 2014-09-14 16:11:14 -0500
Processing by PostsController#index as HTML
  [1m[36mPost Load (0.1ms)[0m  [1mSELECT "posts".* FROM "posts"[0m
  Rendered posts/index.html.erb within layouts/application (1.6ms)
Completed 200 OK in 6ms (Views: 5.4ms | ActiveRecord: 0.1ms)


Started GET "/posts" for 127.0.0.1 at 2014-09-14 16:12:05 -0500
Processing by PostsController#index as HTML
  [1m[35mPost Load (0.2ms)[0m  SELECT "posts".* FROM "posts"
  Rendered posts/index.html.erb within layouts/application (3.3ms)
Completed 200 OK in 11ms (Views: 10.8ms | ActiveRecord: 0.2ms)


Started GET "/assets/comments.css?body=1" for 127.0.0.1 at 2014-09-14 16:12:05 -0500


Started GET "/assets/application.css?body=1" for 127.0.0.1 at 2014-09-14 16:12:05 -0500


Started GET "/assets/scaffolds.css?body=1" for 127.0.0.1 at 2014-09-14 16:12:05 -0500


Started GET "/assets/comments.js?body=1" for 127.0.0.1 at 2014-09-14 16:12:05 -0500


Started GET "/assets/turbolinks.js?body=1" for 127.0.0.1 at 2014-09-14 16:12:05 -0500


Started GET "/assets/jquery.js?body=1" for 127.0.0.1 at 2014-09-14 16:12:05 -0500


Started GET "/assets/posts.js?body=1" for 127.0.0.1 at 2014-09-14 16:12:05 -0500


Started GET "/assets/posts.css?body=1" for 127.0.0.1 at 2014-09-14 16:12:05 -0500


Started GET "/assets/jquery_ujs.js?body=1" for 127.0.0.1 at 2014-09-14 16:12:05 -0500


Started GET "/assets/application.js?body=1" for 127.0.0.1 at 2014-09-14 16:12:05 -0500


Started GET "/posts/new" for 127.0.0.1 at 2014-09-14 16:12:08 -0500
Processing by PostsController#new as HTML
  Rendered posts/_form.html.erb (1.3ms)
  Rendered posts/new.html.erb within layouts/application (2.0ms)
Completed 200 OK in 6ms (Views: 5.4ms | ActiveRecord: 0.0ms)


Started POST "/posts" for 127.0.0.1 at 2014-09-14 16:12:14 -0500
Processing by PostsController#create as HTML
  Parameters: {"utf8"=>"✓", "authenticity_token"=>"z8pvL3Ef7I7w/rkXwHJIxcd2a4rIxGhCDr0CDNDIU3I=", "post"=>{"title"=>"test", "body"=>""}, "commit"=>"Create Post"}
  [1m[36m (0.1ms)[0m  [1mbegin transaction[0m
  [1m[35mSQL (0.2ms)[0m  INSERT INTO "posts" ("body", "created_at", "title", "updated_at") VALUES (?, ?, ?, ?)  [["body", ""], ["created_at", "2014-09-14 21:12:14.151999"], ["title", "test"], ["updated_at", "2014-09-14 21:12:14.151999"]]
  [1m[36m (0.8ms)[0m  [1mcommit transaction[0m
Redirected to http://localhost:3000/posts/5
Completed 302 Found in 4ms (ActiveRecord: 1.1ms)


Started GET "/posts/5" for 127.0.0.1 at 2014-09-14 16:12:14 -0500
Processing by PostsController#show as HTML
  Parameters: {"id"=>"5"}
  [1m[35mPost Load (0.1ms)[0m  SELECT  "posts".* FROM "posts"  WHERE "posts"."id" = ? LIMIT 1  [["id", 5]]
  Rendered posts/show.html.erb within layouts/application (0.3ms)
Completed 200 OK in 5ms (Views: 4.1ms | ActiveRecord: 0.1ms)


Started GET "/assets/posts.css?body=1" for 127.0.0.1 at 2014-09-14 16:12:14 -0500


Started GET "/assets/jquery.js?body=1" for 127.0.0.1 at 2014-09-14 16:12:14 -0500


Started GET "/assets/scaffolds.css?body=1" for 127.0.0.1 at 2014-09-14 16:12:14 -0500


Started GET "/assets/comments.css?body=1" for 127.0.0.1 at 2014-09-14 16:12:14 -0500


Started GET "/assets/jquery_ujs.js?body=1" for 127.0.0.1 at 2014-09-14 16:12:14 -0500


Started GET "/assets/turbolinks.js?body=1" for 127.0.0.1 at 2014-09-14 16:12:14 -0500


Started GET "/assets/application.css?body=1" for 127.0.0.1 at 2014-09-14 16:12:14 -0500


Started GET "/assets/comments.js?body=1" for 127.0.0.1 at 2014-09-14 16:12:14 -0500


Started GET "/assets/application.js?body=1" for 127.0.0.1 at 2014-09-14 16:12:14 -0500


Started GET "/assets/posts.js?body=1" for 127.0.0.1 at 2014-09-14 16:12:14 -0500


Started GET "/posts/4" for 127.0.0.1 at 2014-09-14 16:12:23 -0500
Processing by PostsController#show as HTML
  Parameters: {"id"=>"4"}
  [1m[36mPost Load (0.1ms)[0m  [1mSELECT  "posts".* FROM "posts"  WHERE "posts"."id" = ? LIMIT 1[0m  [["id", 4]]
  Rendered posts/show.html.erb within layouts/application (0.3ms)
Completed 200 OK in 5ms (Views: 3.7ms | ActiveRecord: 0.1ms)


Started GET "/assets/comments.css?body=1" for 127.0.0.1 at 2014-09-14 16:12:23 -0500


Started GET "/assets/posts.css?body=1" for 127.0.0.1 at 2014-09-14 16:12:23 -0500


Started GET "/assets/application.css?body=1" for 127.0.0.1 at 2014-09-14 16:12:23 -0500


Started GET "/assets/jquery_ujs.js?body=1" for 127.0.0.1 at 2014-09-14 16:12:23 -0500


Started GET "/assets/scaffolds.css?body=1" for 127.0.0.1 at 2014-09-14 16:12:23 -0500


Started GET "/assets/turbolinks.js?body=1" for 127.0.0.1 at 2014-09-14 16:12:23 -0500


Started GET "/assets/jquery.js?body=1" for 127.0.0.1 at 2014-09-14 16:12:23 -0500


Started GET "/assets/comments.js?body=1" for 127.0.0.1 at 2014-09-14 16:12:23 -0500


Started GET "/assets/posts.js?body=1" for 127.0.0.1 at 2014-09-14 16:12:23 -0500


Started GET "/assets/application.js?body=1" for 127.0.0.1 at 2014-09-14 16:12:23 -0500


Started GET "/posts/2" for 127.0.0.1 at 2014-09-14 16:12:28 -0500
Processing by PostsController#show as HTML
  Parameters: {"id"=>"2"}
  [1m[35mPost Load (0.1ms)[0m  SELECT  "posts".* FROM "posts"  WHERE "posts"."id" = ? LIMIT 1  [["id", 2]]
  Rendered posts/show.html.erb within layouts/application (0.3ms)
Completed 200 OK in 5ms (Views: 3.7ms | ActiveRecord: 0.1ms)


Started GET "/assets/posts.css?body=1" for 127.0.0.1 at 2014-09-14 16:12:28 -0500


Started GET "/assets/application.css?body=1" for 127.0.0.1 at 2014-09-14 16:12:28 -0500


Started GET "/assets/jquery.js?body=1" for 127.0.0.1 at 2014-09-14 16:12:28 -0500


Started GET "/assets/jquery_ujs.js?body=1" for 127.0.0.1 at 2014-09-14 16:12:28 -0500


Started GET "/assets/turbolinks.js?body=1" for 127.0.0.1 at 2014-09-14 16:12:28 -0500


Started GET "/assets/comments.css?body=1" for 127.0.0.1 at 2014-09-14 16:12:28 -0500


Started GET "/assets/scaffolds.css?body=1" for 127.0.0.1 at 2014-09-14 16:12:28 -0500


Started GET "/assets/comments.js?body=1" for 127.0.0.1 at 2014-09-14 16:12:28 -0500


Started GET "/assets/posts.js?body=1" for 127.0.0.1 at 2014-09-14 16:12:28 -0500


Started GET "/assets/application.js?body=1" for 127.0.0.1 at 2014-09-14 16:12:28 -0500


Started GET "/posts/1" for 127.0.0.1 at 2014-09-14 16:12:31 -0500
Processing by PostsController#show as HTML
  Parameters: {"id"=>"1"}
  [1m[36mPost Load (0.1ms)[0m  [1mSELECT  "posts".* FROM "posts"  WHERE "posts"."id" = ? LIMIT 1[0m  [["id", 1]]
  Rendered posts/show.html.erb within layouts/application (0.3ms)
Completed 200 OK in 4ms (Views: 3.6ms | ActiveRecord: 0.1ms)


Started GET "/assets/posts.css?body=1" for 127.0.0.1 at 2014-09-14 16:12:31 -0500


Started GET "/assets/jquery_ujs.js?body=1" for 127.0.0.1 at 2014-09-14 16:12:31 -0500


Started GET "/assets/jquery.js?body=1" for 127.0.0.1 at 2014-09-14 16:12:31 -0500


Started GET "/assets/application.css?body=1" for 127.0.0.1 at 2014-09-14 16:12:31 -0500


Started GET "/assets/scaffolds.css?body=1" for 127.0.0.1 at 2014-09-14 16:12:31 -0500


Started GET "/assets/comments.css?body=1" for 127.0.0.1 at 2014-09-14 16:12:31 -0500


Started GET "/assets/turbolinks.js?body=1" for 127.0.0.1 at 2014-09-14 16:12:31 -0500


Started GET "/assets/posts.js?body=1" for 127.0.0.1 at 2014-09-14 16:12:31 -0500


Started GET "/assets/comments.js?body=1" for 127.0.0.1 at 2014-09-14 16:12:31 -0500


Started GET "/assets/application.js?body=1" for 127.0.0.1 at 2014-09-14 16:12:31 -0500


Started GET "/posts" for 127.0.0.1 at 2014-09-14 16:13:26 -0500
Processing by PostsController#index as HTML
  [1m[35mPost Load (0.1ms)[0m  SELECT "posts".* FROM "posts"
  Rendered posts/index.html.erb within layouts/application (2.5ms)
Completed 200 OK in 6ms (Views: 5.8ms | ActiveRecord: 0.1ms)


Started GET "/posts/new" for 127.0.0.1 at 2014-09-14 16:13:34 -0500
Processing by PostsController#new as HTML
  Rendered posts/_form.html.erb (1.3ms)
  Rendered posts/new.html.erb within layouts/application (1.9ms)
Completed 200 OK in 6ms (Views: 5.1ms | ActiveRecord: 0.0ms)


Started POST "/posts" for 127.0.0.1 at 2014-09-14 16:13:40 -0500
Processing by PostsController#create as HTML
  Parameters: {"utf8"=>"✓", "authenticity_token"=>"z8pvL3Ef7I7w/rkXwHJIxcd2a4rIxGhCDr0CDNDIU3I=", "post"=>{"title"=>"This is a test", "body"=>""}, "commit"=>"Create Post"}
  [1m[36m (0.1ms)[0m  [1mbegin transaction[0m
  [1m[35mSQL (0.4ms)[0m  INSERT INTO "posts" ("body", "created_at", "title", "updated_at") VALUES (?, ?, ?, ?)  [["body", ""], ["created_at", "2014-09-14 21:13:40.610070"], ["title", "This is a test"], ["updated_at", "2014-09-14 21:13:40.610070"]]
  [1m[36m (1.6ms)[0m  [1mcommit transaction[0m
Redirected to http://localhost:3000/posts/6
Completed 302 Found in 5ms (ActiveRecord: 2.1ms)


Started GET "/posts/6" for 127.0.0.1 at 2014-09-14 16:13:40 -0500
Processing by PostsController#show as HTML
  Parameters: {"id"=>"6"}
  [1m[35mPost Load (0.1ms)[0m  SELECT  "posts".* FROM "posts"  WHERE "posts"."id" = ? LIMIT 1  [["id", 6]]
  Rendered posts/show.html.erb within layouts/application (0.3ms)
Completed 200 OK in 5ms (Views: 3.9ms | ActiveRecord: 0.1ms)


Started GET "/assets/scaffolds.css?body=1" for 127.0.0.1 at 2014-09-14 16:13:40 -0500


Started GET "/assets/application.css?body=1" for 127.0.0.1 at 2014-09-14 16:13:40 -0500


Started GET "/assets/turbolinks.js?body=1" for 127.0.0.1 at 2014-09-14 16:13:40 -0500


Started GET "/assets/comments.js?body=1" for 127.0.0.1 at 2014-09-14 16:13:40 -0500


Started GET "/assets/application.js?body=1" for 127.0.0.1 at 2014-09-14 16:13:40 -0500


Started GET "/assets/jquery.js?body=1" for 127.0.0.1 at 2014-09-14 16:13:40 -0500


Started GET "/assets/posts.js?body=1" for 127.0.0.1 at 2014-09-14 16:13:40 -0500


Started GET "/assets/jquery_ujs.js?body=1" for 127.0.0.1 at 2014-09-14 16:13:40 -0500


Started GET "/posts/6" for 127.0.0.1 at 2014-09-14 16:18:00 -0500
  [1m[36mActiveRecord::SchemaMigration Load (0.1ms)[0m  [1mSELECT "schema_migrations".* FROM "schema_migrations"[0m
Processing by PostsController#show as HTML
  Parameters: {"id"=>"6"}
  [1m[35mPost Load (0.1ms)[0m  SELECT  "posts".* FROM "posts"  WHERE "posts"."id" = ? LIMIT 1  [["id", 6]]
  Rendered posts/show.html.erb within layouts/application (0.6ms)
Completed 200 OK in 15ms (Views: 5.9ms | ActiveRecord: 0.3ms)


Started GET "/assets/comments.css?body=1" for 127.0.0.1 at 2014-09-14 16:18:00 -0500


Started GET "/assets/posts.css?body=1" for 127.0.0.1 at 2014-09-14 16:18:00 -0500


Started GET "/assets/turbolinks.js?body=1" for 127.0.0.1 at 2014-09-14 16:18:00 -0500


Started GET "/assets/comments.js?body=1" for 127.0.0.1 at 2014-09-14 16:18:00 -0500


Started GET "/assets/posts.js?body=1" for 127.0.0.1 at 2014-09-14 16:18:00 -0500


Started GET "/assets/application.js?body=1" for 127.0.0.1 at 2014-09-14 16:18:00 -0500


Started GET "/assets/jquery_ujs.js?body=1" for 127.0.0.1 at 2014-09-14 16:18:00 -0500


Started GET "/assets/application.css?body=1" for 127.0.0.1 at 2014-09-14 16:18:00 -0500


Started GET "/assets/jquery.js?body=1" for 127.0.0.1 at 2014-09-14 16:18:00 -0500


Started GET "/assets/scaffolds.css?body=1" for 127.0.0.1 at 2014-09-14 16:18:00 -0500


Started GET "/posts" for 127.0.0.1 at 2014-09-14 16:18:02 -0500
Processing by PostsController#index as HTML
  [1m[36mPost Load (0.1ms)[0m  [1mSELECT "posts".* FROM "posts"[0m
  Rendered posts/index.html.erb within layouts/application (2.4ms)
Completed 200 OK in 6ms (Views: 5.7ms | ActiveRecord: 0.1ms)


Started GET "/posts/new" for 127.0.0.1 at 2014-09-14 16:18:04 -0500
Processing by PostsController#new as HTML
  Rendered posts/_form.html.erb (1.7ms)
  Rendered posts/new.html.erb within layouts/application (2.4ms)
Completed 200 OK in 7ms (Views: 6.5ms | ActiveRecord: 0.0ms)


Started POST "/posts" for 127.0.0.1 at 2014-09-14 16:18:06 -0500
Processing by PostsController#create as HTML
  Parameters: {"utf8"=>"✓", "authenticity_token"=>"z8pvL3Ef7I7w/rkXwHJIxcd2a4rIxGhCDr0CDNDIU3I=", "post"=>{"title"=>"Test", "body"=>""}, "commit"=>"Create Post"}
  [1m[35m (0.1ms)[0m  begin transaction
  [1m[36m (0.0ms)[0m  [1mrollback transaction[0m
  Rendered posts/_form.html.erb (7.3ms)
  Rendered posts/new.html.erb within layouts/application (9.0ms)
Completed 200 OK in 15ms (Views: 12.8ms | ActiveRecord: 0.1ms)


Started GET "/assets/comments.css?body=1" for 127.0.0.1 at 2014-09-14 16:18:06 -0500


Started GET "/assets/application.css?body=1" for 127.0.0.1 at 2014-09-14 16:18:06 -0500


Started GET "/assets/posts.css?body=1" for 127.0.0.1 at 2014-09-14 16:18:06 -0500


Started GET "/assets/scaffolds.css?body=1" for 127.0.0.1 at 2014-09-14 16:18:06 -0500


Started GET "/assets/jquery.js?body=1" for 127.0.0.1 at 2014-09-14 16:18:06 -0500


Started GET "/assets/turbolinks.js?body=1" for 127.0.0.1 at 2014-09-14 16:18:06 -0500


Started GET "/assets/jquery_ujs.js?body=1" for 127.0.0.1 at 2014-09-14 16:18:06 -0500


Started GET "/assets/comments.js?body=1" for 127.0.0.1 at 2014-09-14 16:18:06 -0500


Started GET "/assets/posts.js?body=1" for 127.0.0.1 at 2014-09-14 16:18:06 -0500


Started GET "/assets/application.js?body=1" for 127.0.0.1 at 2014-09-14 16:18:06 -0500
